<?xml version="1.0" encoding="UTF-8"?><svg xmlns="http://www.w3.org/2000/svg" xmlns:xlink="http://www.w3.org/1999/xlink" stroke-dasharray="none" shape-rendering="auto" font-family="'Dialog'" width="929" text-rendering="auto" fill-opacity="1" contentScriptType="text/ecmascript" color-interpolation="auto" color-rendering="auto" preserveAspectRatio="xMidYMid meet" font-size="12" viewBox="40 61 929 433" fill="black" stroke="black" image-rendering="auto" stroke-miterlimit="10" zoomAndPan="magnify" version="1.0" stroke-linecap="square" stroke-linejoin="miter" contentStyleType="text/css" font-style="normal" height="433" stroke-width="1" stroke-dashoffset="0" font-weight="normal" stroke-opacity="1">
<!--Generated by the Batik Graphics2D SVG Generator-->
<defs id="genericDefs"/>
<g>
<defs id="defs1">
<clipPath clipPathUnits="userSpaceOnUse" id="clipPath1">
<path d="M42 123 L157 123 L157 178 L42 178 L42 123 Z"/>
</clipPath>
<clipPath clipPathUnits="userSpaceOnUse" id="clipPath2">
<path d="M57 125 L141 125 L141 143 L57 143 L57 125 Z"/>
</clipPath>
<clipPath clipPathUnits="userSpaceOnUse" id="clipPath3">
<path d="M-3 -2 L46 -2 L46 18 L-3 18 L-3 -2 Z"/>
</clipPath>
<clipPath clipPathUnits="userSpaceOnUse" id="clipPath4">
<path d="M74 141 L123 141 L123 161 L74 161 L74 141 Z"/>
</clipPath>
<clipPath clipPathUnits="userSpaceOnUse" id="clipPath5">
<path d="M63 159 L135 159 L135 175 L63 175 L63 159 Z"/>
</clipPath>
<clipPath clipPathUnits="userSpaceOnUse" id="clipPath6">
<path d="M42 176 L157 176 L157 183 L42 183 L42 176 Z"/>
</clipPath>
<clipPath clipPathUnits="userSpaceOnUse" id="clipPath7">
<path d="M42 181 L157 181 L157 224 L42 224 L42 181 Z"/>
</clipPath>
<clipPath clipPathUnits="userSpaceOnUse" id="clipPath8">
<path d="M-3 -2 L52 -2 L52 18 L-3 18 L-3 -2 Z"/>
</clipPath>
<clipPath clipPathUnits="userSpaceOnUse" id="clipPath9">
<path d="M44 183 L99 183 L99 203 L44 203 L44 183 Z"/>
</clipPath>
<clipPath clipPathUnits="userSpaceOnUse" id="clipPath10">
<path d="M-3 -2 L107 -2 L107 18 L-3 18 L-3 -2 Z"/>
</clipPath>
<clipPath clipPathUnits="userSpaceOnUse" id="clipPath11">
<path d="M44 201 L154 201 L154 221 L44 221 L44 201 Z"/>
</clipPath>
<clipPath clipPathUnits="userSpaceOnUse" id="clipPath12">
<path d="M846 355 L967 355 L967 410 L846 410 L846 355 Z"/>
</clipPath>
<clipPath clipPathUnits="userSpaceOnUse" id="clipPath13">
<path d="M848 357 L964 357 L964 375 L848 375 L848 357 Z"/>
</clipPath>
<clipPath clipPathUnits="userSpaceOnUse" id="clipPath14">
<path d="M-3 -2 L93 -2 L93 18 L-3 18 L-3 -2 Z"/>
</clipPath>
<clipPath clipPathUnits="userSpaceOnUse" id="clipPath15">
<path d="M858 373 L954 373 L954 393 L858 393 L858 373 Z"/>
</clipPath>
<clipPath clipPathUnits="userSpaceOnUse" id="clipPath16">
<path d="M870 391 L942 391 L942 407 L870 407 L870 391 Z"/>
</clipPath>
<clipPath clipPathUnits="userSpaceOnUse" id="clipPath17">
<path d="M846 408 L967 408 L967 469 L846 469 L846 408 Z"/>
</clipPath>
<clipPath clipPathUnits="userSpaceOnUse" id="clipPath18">
<path d="M-3 -2 L95 -2 L95 18 L-3 18 L-3 -2 Z"/>
</clipPath>
<clipPath clipPathUnits="userSpaceOnUse" id="clipPath19">
<path d="M848 410 L946 410 L946 430 L848 430 L848 410 Z"/>
</clipPath>
<clipPath clipPathUnits="userSpaceOnUse" id="clipPath20">
<path d="M-3 -2 L98 -2 L98 18 L-3 18 L-3 -2 Z"/>
</clipPath>
<clipPath clipPathUnits="userSpaceOnUse" id="clipPath21">
<path d="M848 428 L949 428 L949 448 L848 448 L848 428 Z"/>
</clipPath>
<clipPath clipPathUnits="userSpaceOnUse" id="clipPath22">
<path d="M848 446 L946 446 L946 466 L848 466 L848 446 Z"/>
</clipPath>
<clipPath clipPathUnits="userSpaceOnUse" id="clipPath23">
<path d="M846 467 L967 467 L967 492 L846 492 L846 467 Z"/>
</clipPath>
<clipPath clipPathUnits="userSpaceOnUse" id="clipPath24">
<path d="M-3 -2 L90 -2 L90 18 L-3 18 L-3 -2 Z"/>
</clipPath>
<clipPath clipPathUnits="userSpaceOnUse" id="clipPath25">
<path d="M848 469 L941 469 L941 489 L848 489 L848 469 Z"/>
</clipPath>
<clipPath clipPathUnits="userSpaceOnUse" id="clipPath26">
<path d="M766 101 L919 101 L919 156 L766 156 L766 101 Z"/>
</clipPath>
<clipPath clipPathUnits="userSpaceOnUse" id="clipPath27">
<path d="M800 103 L884 103 L884 121 L800 121 L800 103 Z"/>
</clipPath>
<clipPath clipPathUnits="userSpaceOnUse" id="clipPath28">
<path d="M-3 -2 L50 -2 L50 18 L-3 18 L-3 -2 Z"/>
</clipPath>
<clipPath clipPathUnits="userSpaceOnUse" id="clipPath29">
<path d="M815 119 L868 119 L868 139 L815 139 L815 119 Z"/>
</clipPath>
<clipPath clipPathUnits="userSpaceOnUse" id="clipPath30">
<path d="M806 137 L878 137 L878 153 L806 153 L806 137 Z"/>
</clipPath>
<clipPath clipPathUnits="userSpaceOnUse" id="clipPath31">
<path d="M766 154 L919 154 L919 161 L766 161 L766 154 Z"/>
</clipPath>
<clipPath clipPathUnits="userSpaceOnUse" id="clipPath32">
<path d="M766 159 L919 159 L919 202 L766 202 L766 159 Z"/>
</clipPath>
<clipPath clipPathUnits="userSpaceOnUse" id="clipPath33">
<path d="M-3 -2 L116 -2 L116 18 L-3 18 L-3 -2 Z"/>
</clipPath>
<clipPath clipPathUnits="userSpaceOnUse" id="clipPath34">
<path d="M768 161 L887 161 L887 181 L768 181 L768 161 Z"/>
</clipPath>
<clipPath clipPathUnits="userSpaceOnUse" id="clipPath35">
<path d="M-3 -2 L145 -2 L145 18 L-3 18 L-3 -2 Z"/>
</clipPath>
<clipPath clipPathUnits="userSpaceOnUse" id="clipPath36">
<path d="M768 179 L916 179 L916 199 L768 199 L768 179 Z"/>
</clipPath>
<clipPath clipPathUnits="userSpaceOnUse" id="clipPath37">
<path d="M281 304 L421 304 L421 359 L281 359 L281 304 Z"/>
</clipPath>
<clipPath clipPathUnits="userSpaceOnUse" id="clipPath38">
<path d="M308 306 L392 306 L392 324 L308 324 L308 306 Z"/>
</clipPath>
<clipPath clipPathUnits="userSpaceOnUse" id="clipPath39">
<path d="M-3 -2 L61 -2 L61 18 L-3 18 L-3 -2 Z"/>
</clipPath>
<clipPath clipPathUnits="userSpaceOnUse" id="clipPath40">
<path d="M318 322 L382 322 L382 342 L318 342 L318 322 Z"/>
</clipPath>
<clipPath clipPathUnits="userSpaceOnUse" id="clipPath41">
<path d="M314 340 L386 340 L386 356 L314 356 L314 340 Z"/>
</clipPath>
<clipPath clipPathUnits="userSpaceOnUse" id="clipPath42">
<path d="M281 357 L421 357 L421 436 L281 436 L281 357 Z"/>
</clipPath>
<clipPath clipPathUnits="userSpaceOnUse" id="clipPath43">
<path d="M-3 -2 L117 -2 L117 18 L-3 18 L-3 -2 Z"/>
</clipPath>
<clipPath clipPathUnits="userSpaceOnUse" id="clipPath44">
<path d="M283 359 L403 359 L403 379 L283 379 L283 359 Z"/>
</clipPath>
<clipPath clipPathUnits="userSpaceOnUse" id="clipPath45">
<path d="M-3 -2 L132 -2 L132 18 L-3 18 L-3 -2 Z"/>
</clipPath>
<clipPath clipPathUnits="userSpaceOnUse" id="clipPath46">
<path d="M283 377 L418 377 L418 397 L283 397 L283 377 Z"/>
</clipPath>
<clipPath clipPathUnits="userSpaceOnUse" id="clipPath47">
<path d="M-3 -2 L63 -2 L63 18 L-3 18 L-3 -2 Z"/>
</clipPath>
<clipPath clipPathUnits="userSpaceOnUse" id="clipPath48">
<path d="M283 395 L349 395 L349 415 L283 415 L283 395 Z"/>
</clipPath>
<clipPath clipPathUnits="userSpaceOnUse" id="clipPath49">
<path d="M-3 -2 L72 -2 L72 18 L-3 18 L-3 -2 Z"/>
</clipPath>
<clipPath clipPathUnits="userSpaceOnUse" id="clipPath50">
<path d="M283 413 L358 413 L358 433 L283 433 L283 413 Z"/>
</clipPath>
<clipPath clipPathUnits="userSpaceOnUse" id="clipPath51">
<path d="M848 200 L893 200 L893 358 L848 358 L848 200 Z"/>
</clipPath>
<clipPath clipPathUnits="userSpaceOnUse" id="clipPath52">
<path d="M848 200 L861 200 L861 213 L848 213 L848 200 Z"/>
</clipPath>
<clipPath clipPathUnits="userSpaceOnUse" id="clipPath53">
<path d="M419 169 L769 169 L769 356 L419 356 L419 169 Z"/>
</clipPath>
<clipPath clipPathUnits="userSpaceOnUse" id="clipPath54">
<path d="M680 169 L757 169 L757 189 L680 189 L680 169 Z"/>
</clipPath>
<clipPath clipPathUnits="userSpaceOnUse" id="clipPath55">
<path d="M732 193 L757 193 L757 211 L732 211 L732 193 Z"/>
</clipPath>
<clipPath clipPathUnits="userSpaceOnUse" id="clipPath56">
<path d="M758 186 L769 186 L769 197 L758 197 L758 186 Z"/>
</clipPath>
<clipPath clipPathUnits="userSpaceOnUse" id="clipPath57">
<path d="M355 60 L802 60 L802 307 L355 307 L355 60 Z"/>
</clipPath>
<clipPath clipPathUnits="userSpaceOnUse" id="clipPath58">
<path d="M759 72 L775 72 L775 92 L759 92 L759 72 Z"/>
</clipPath>
<clipPath clipPathUnits="userSpaceOnUse" id="clipPath59">
<path d="M779 74 L802 74 L802 92 L779 92 L779 74 Z"/>
</clipPath>
<clipPath clipPathUnits="userSpaceOnUse" id="clipPath60">
<path d="M772 93 L783 93 L783 104 L772 104 L772 93 Z"/>
</clipPath>
<clipPath clipPathUnits="userSpaceOnUse" id="clipPath61">
<path d="M155 215 L284 215 L284 336 L155 336 L155 215 Z"/>
</clipPath>
<clipPath clipPathUnits="userSpaceOnUse" id="clipPath62">
<path d="M227 294 L272 294 L272 314 L227 314 L227 294 Z"/>
</clipPath>
<clipPath clipPathUnits="userSpaceOnUse" id="clipPath63">
<path d="M247 318 L272 318 L272 336 L247 336 L247 318 Z"/>
</clipPath>
<clipPath clipPathUnits="userSpaceOnUse" id="clipPath64">
<path d="M273 311 L284 311 L284 322 L273 322 L273 311 Z"/>
</clipPath>
<clipPath clipPathUnits="userSpaceOnUse" id="clipPath65">
<path d="M829 200 L904 200 L904 358 L829 358 L829 200 Z"/>
</clipPath>
<clipPath clipPathUnits="userSpaceOnUse" id="clipPath66">
<path d="M829 326 L875 326 L875 346 L829 346 L829 326 Z"/>
</clipPath>
<clipPath clipPathUnits="userSpaceOnUse" id="clipPath67">
<path d="M879 328 L904 328 L904 346 L879 346 L879 328 Z"/>
</clipPath>
<clipPath clipPathUnits="userSpaceOnUse" id="clipPath68">
<path d="M872 347 L883 347 L883 358 L872 358 L872 347 Z"/>
</clipPath>
<clipPath clipPathUnits="userSpaceOnUse" id="clipPath69">
<path d="M406 94 L769 94 L769 307 L406 307 L406 94 Z"/>
</clipPath>
<clipPath clipPathUnits="userSpaceOnUse" id="clipPath70">
<path d="M692 94 L757 94 L757 114 L692 114 L692 94 Z"/>
</clipPath>
<clipPath clipPathUnits="userSpaceOnUse" id="clipPath71">
<path d="M732 118 L757 118 L757 136 L732 136 L732 118 Z"/>
</clipPath>
<clipPath clipPathUnits="userSpaceOnUse" id="clipPath72">
<path d="M758 111 L769 111 L769 122 L758 122 L758 111 Z"/>
</clipPath>
<clipPath clipPathUnits="userSpaceOnUse" id="clipPath73">
<path d="M419 136 L769 136 L769 332 L419 332 L419 136 Z"/>
</clipPath>
<clipPath clipPathUnits="userSpaceOnUse" id="clipPath74">
<path d="M688 136 L757 136 L757 156 L688 156 L688 136 Z"/>
</clipPath>
<clipPath clipPathUnits="userSpaceOnUse" id="clipPath75">
<path d="M732 160 L757 160 L757 178 L732 178 L732 160 Z"/>
</clipPath>
<clipPath clipPathUnits="userSpaceOnUse" id="clipPath76">
<path d="M758 153 L769 153 L769 164 L758 164 L758 153 Z"/>
</clipPath>
</defs>
<g fill="white" font-family="'Segoe UI'" stroke-linejoin="round" stroke="white" stroke-width="0" stroke-miterlimit="0">
<rect width="1052" x="0" height="672" y="0" stroke="none"/>
<rect x="43" y="124" clip-path="url(#clipPath1)" fill="rgb(255,255,200)" width="113" height="53" stroke="none"/>
</g>
<g stroke-linecap="butt" font-family="'Segoe UI'">
<rect x="43" y="124" clip-path="url(#clipPath1)" fill="none" width="112" height="52"/>
<text x="60" font-size="11" y="138" clip-path="url(#clipPath2)" font-family="'Arial'" stroke="none" xml:space="preserve">&lt;&lt;Java Class&gt;&gt;</text>
<image transform="matrix(1,0,0,1,77,143)" width="16" xlink:show="embed" xlink:type="simple" clip-path="url(#clipPath3)" preserveAspectRatio="none" font-weight="bold" height="16" font-family="'Arial'" x="0" y="0" xlink:href="data:image/png;base64,iVBORw0KGgoAAAANSUhEUgAAABAAAAAQCAYAAAAf8/9hAAACUElEQVR42s2S3UvT&#13;&#10;URjHP7/tNzfn67YgtU0FwUTLmZLRhYGWEfai9kY3elVdRdgfUGkQdGeEFxF2UdhN&#13;&#10;YNqLGhIShElJKtlFVs5B2szNTd3cm3O/fvtJg5l0000PnPOc8z3n+ZznPOfAP5qw&#13;&#10;WXg3MSJ1jD3G7fPIbQmDPh1TuolL5WfZV7Zf+CvgxvM70sDkENbcPDL0yXF92R9g&#13;&#10;1Gajfk8t145fFrYExIJ7P/RRX1GJ1VKKMXUbokokEo1gc37D7pqj680QzVWnEyDq&#13;&#10;eNrDXRwq2UV1cTVHio+RZ8zHYshVfJm5nHXCpOgl+iZG6G1/0Np5935bHOCvSGvN&#13;&#10;ytRSnl9Co/WMQn419ZIXk09x+pwUbi9CVItMzX+WfZSxBTvjPcMKQIx1Lp+bVC1I&#13;&#10;klYJnnbaePS2RxmP278w+Ok14UhYmQdDYRb9jngNFMCi18OCJ8RyMKSIDq+LsZkZ&#13;&#10;GShtFEoQ0IgiarWATtSwGookAkxpBlaDy8wvLSpintGMITUNKRpV5udrmklO0tD9&#13;&#10;YRCP14lOmxQHqGKdxZSNWj7F4f7OStCLJTOHq/Ut7M4vpqGyjqbKRmqLDqCRS5mi&#13;&#10;1VGYXZAIuFjawA+3G/9agFsD7XyVa3BwZxUd525ypeYCjpWfdA4/ZG09zEe7jaai&#13;&#10;w3/+g7Znt6Xu9/1kGQ3kGI2YjTvktHUEwkFm3XMEQmvMLDg5aq3m+okWYcufGIM8&#13;&#10;Ge2nINuMKMrJSRs7IpEo045ZTu6tSwiOX+G3xRbvnWpDpdLJr+LDteJXvD4pg5i+&#13;&#10;Ofj/sF95FuJLLC5pIAAAAABJRU5ErkJggg==" xlink:actuate="onLoad"/>
<text x="93" y="155" clip-path="url(#clipPath4)" font-family="'Arial'" stroke="none" font-weight="bold" xml:space="preserve">Appli</text>
<text x="66" font-size="9" y="170" clip-path="url(#clipPath5)" font-family="'Arial'" stroke="none" xml:space="preserve">threeSpotGame</text>
<rect x="43" y="177" clip-path="url(#clipPath6)" fill="rgb(255,255,200)" width="113" height="5" stroke="none"/>
<rect x="43" y="176" clip-path="url(#clipPath6)" fill="none" width="112" height="5"/>
<rect x="43" y="182" clip-path="url(#clipPath7)" fill="rgb(255,255,200)" width="113" height="41" stroke="none"/>
<rect x="43" y="181" clip-path="url(#clipPath7)" fill="none" width="112" height="41"/>
<image transform="matrix(1,0,0,1,47,185)" width="16" xlink:show="embed" xlink:type="simple" clip-path="url(#clipPath8)" preserveAspectRatio="none" height="16" font-family="'Arial'" x="0" y="0" font-size="11" xlink:href="data:image/png;base64,iVBORw0KGgoAAAANSUhEUgAAABAAAAAQCAYAAAAf8/9hAAABXUlEQVR42mNmIBL8&#13;&#10;B4INBqcbuJT5G4QcpRtWrVvdsLhrXiMLsQY4bo9i+Hz+NcOs4okMV77cZkifWAAW&#13;&#10;Z2IgEbgIWTEUyMUz3G08RZ4B6ICFVA173h0De2Hy3Kn4DSjdPuH/hFM7GTRFxBnc&#13;&#10;lQwYujzyGQx+ejOk9eYzMLIwMszMn8Dg2mTNwIhNs+/i4v9C7IwMoRqaDE++fGY4&#13;&#10;/uQJw7uf/xk2xfTA1TACAZhG11y4rff/04+PwZqRIpFh9Y0bDNL8sgz9XsWMeMNg&#13;&#10;0qndDPW2Vgw3379GCAK16IgJMTQe3k04EKV4+BgevH3HwM/OBrcdZMLHn7/Aco/R&#13;&#10;1GNEo7uSPsPdd+8ZxDm4GcTZuRkk2HnA7LtvP4Dl0AHWQHSek/Of/f9PBl8lZYbX&#13;&#10;P74znHj2jOEnIzvD3pQpGOqZsRlwf9OpRq+UiIamUwcYXv/6w2AsqcGwPKqVkWF4&#13;&#10;AgAw8XULl40C8AAAAABJRU5ErkJggg==" xlink:actuate="onLoad"/>
<text x="63" font-size="11" y="197" clip-path="url(#clipPath9)" font-family="'Arial'" stroke="none" xml:space="preserve">Appli()</text>
<image transform="matrix(1,0,0,1,47,203)" width="16" xlink:show="embed" xlink:type="simple" clip-path="url(#clipPath10)" preserveAspectRatio="none" height="16" font-family="'Arial'" x="0" y="0" font-size="11" xlink:href="data:image/png;base64,iVBORw0KGgoAAAANSUhEUgAAABAAAAAQCAYAAAAf8/9hAAABNUlEQVR42mNkIBL8&#13;&#10;B4KPe08wXHdLA/M1d81i4He2YGBiIAGANFv8vQTGMINIMgAZgAwBARZSNIGcfYJZ&#13;&#10;j3wvgDSgewGnC0q3T/g/4dROBk0RcQZ3JQOwGMh2mNNhAKsBvouL/7/6/IRhfWAI&#13;&#10;w5MvnxmOP3kCFpfvLoZ7AcQGAUZ0zYXbev8//fiYIVRDEzkSGVbfuMEgzS/L0O9V&#13;&#10;zIjXBZNO7Waot7ViuPn+NUIQqEVHTIih8fBuDNdiGCDFw8fw4O07Bn52NrjtIBM+&#13;&#10;/vwFlnuMph4jFtyV9BnuvnvPIM7BzSDOzs0gwc4DZt99+wEshw4YsQWi85yc/+z/&#13;&#10;fzL4KikzvP7xneHEs2cMPxnZGfamTMFQz4zNgPubTjV6pUQ0NJ06wPD61x8GY0kN&#13;&#10;huVRrYwMwxMAAGlncEHMfmJ7AAAAAElFTkSuQmCC" xlink:actuate="onLoad"/>
<text x="63" font-size="11" y="215" clip-path="url(#clipPath11)" font-family="'Arial'" stroke="none" xml:space="preserve">main(String[]):void</text>
<line clip-path="url(#clipPath11)" fill="none" x1="63" x2="149" y1="217" y2="217"/>
<rect x="847" y="356" clip-path="url(#clipPath12)" fill="rgb(255,255,200)" width="119" height="53" stroke="none"/>
<rect x="847" y="356" clip-path="url(#clipPath12)" fill="none" width="118" height="52"/>
<text x="851" font-size="11" y="370" clip-path="url(#clipPath13)" font-family="'Arial'" stroke="none" xml:space="preserve">&lt;&lt;Java Enumeration&gt;&gt;</text>
<image transform="matrix(1,0,0,1,861,375)" width="16" xlink:show="embed" xlink:type="simple" clip-path="url(#clipPath14)" preserveAspectRatio="none" font-weight="bold" height="16" font-family="'Arial'" x="0" y="0" xlink:href="data:image/png;base64,iVBORw0KGgoAAAANSUhEUgAAABAAAAAQCAYAAAAf8/9hAAAB6ElEQVR42mNgoBAw&#13;&#10;ogs8vHzk/5HVvQzfPr5l+PHlPQM7Fz8Dt6Aog01oMYO8rg0jXgN2z635f+PYRgZx&#13;&#10;JT2G75/ewcU5+YQYnt8+x6BlG8zgmtzCiNUAkOarB1czaNoEMIjKaWI49c7Z3QyP&#13;&#10;rhxl0HeJQTGEGebso0BnKxu7MPz7+4fBLrKcQVJZHwX//f2T4fPb5wyPrx1nmLl4&#13;&#10;Q8OE6fMaQXpZQMShFZ0MwjJqDJ/ePEWx9ebJbQzvn98Ds1/ev8LAysHFICqvxXBi&#13;&#10;wxS4GrAB3z6+YWBl5wIGGB+KAc9unWV4fucCQjEbOzBgPzJ8/voB1YAfXz6AQ/3/&#13;&#10;/38oBjjG1sLZmyflMDy4eJCBiYWV4c+vH6gGcPAIMPz68Q0j4M7umM/w6sFVMPvL&#13;&#10;+5cMjMwsQEv+M3DyCqIaICAuz/D60Q0GLj5hFAO+vHvB8OLuRTifm18ETAtKKALJ&#13;&#10;42A2E4iwCMgBe4ORiQmMYcA+qpIhsXs3GBt7JjEws7AxvHt2l8HIIwEzHeyaU/X/&#13;&#10;yoFVDFxAW7RsAjG88+LeJYYXwADVsPZncEtpY8SaEsGGABMTyEvMzKxAkf9gJX//&#13;&#10;/mb48PIhg459KIpmuBdgACQZXDafgYmJmeHLh5fgmAHRbBzcDCBxdM2DAwAA5f26&#13;&#10;u17SzQEAAAAASUVORK5CYII=" xlink:actuate="onLoad"/>
<text x="877" y="387" clip-path="url(#clipPath15)" font-family="'Arial'" stroke="none" font-weight="bold" xml:space="preserve">couleurPièce</text>
<text x="873" font-size="9" y="402" clip-path="url(#clipPath16)" font-family="'Arial'" stroke="none" xml:space="preserve">threeSpotGame</text>
<rect x="847" y="409" clip-path="url(#clipPath17)" fill="rgb(255,255,200)" width="119" height="59" stroke="none"/>
<rect x="847" y="408" clip-path="url(#clipPath17)" fill="none" width="118" height="59"/>
<image transform="matrix(1,0,0,1,851,412)" width="16" xlink:show="embed" xlink:type="simple" clip-path="url(#clipPath18)" preserveAspectRatio="none" height="16" font-family="'Arial'" x="0" y="0" font-size="11" xlink:href="data:image/png;base64,iVBORw0KGgoAAAANSUhEUgAAABAAAAAQCAYAAAAf8/9hAAABCElEQVR42mNkAIL/&#13;&#10;QPBx7wmG625pIC6D5q5ZDPzOFgyMQMAABSA1msnTGbRl+cD8q48/MVyfm8nAAlMA&#13;&#10;0mzx9xKYfYJZD85GBiDNaxqiUcRYGLAAbJrRAcx1cANAzgbZjOwFdABydkjDUjAN&#13;&#10;A0wwBkgDyGYQhoUFLi+A/I7hBWz+dllY8h9E+6pbYXU+igHy3cVwL4DYIOAqzgum&#13;&#10;F1/YxZBnHojidLhh2JxqMiPjv60kL0OfXxeYX7SpjOHw888MZzJmYKhnwmbAnXdP&#13;&#10;GSTYeeB8EBskhg1gjcZc8yCG9pPrgKwmML/93BmwWDPDZuK8AAK1e+f/X3hmM8On&#13;&#10;v78hmp0TGRlGAW0AAPM7ZJd5gGB8AAAAAElFTkSuQmCC" xlink:actuate="onLoad"/>
<text x="867" font-size="11" y="424" clip-path="url(#clipPath19)" font-family="'Arial'" stroke="none" xml:space="preserve">R: couleurPièce</text>
<line clip-path="url(#clipPath19)" fill="none" x1="867" x2="941" y1="426" y2="426"/>
<image transform="matrix(1,0,0,1,851,430)" width="16" xlink:show="embed" xlink:type="simple" clip-path="url(#clipPath20)" preserveAspectRatio="none" height="16" font-family="'Arial'" x="0" y="0" font-size="11" xlink:href="data:image/png;base64,iVBORw0KGgoAAAANSUhEUgAAABAAAAAQCAYAAAAf8/9hAAABCElEQVR42mNkAIL/&#13;&#10;QPBx7wmG625pIC6D5q5ZDPzOFgyMQMAABSA1msnTGbRl+cD8q48/MVyfm8nAAlMA&#13;&#10;0mzx9xKYfYJZD85GBiDNaxqiUcRYGLAAbJrRAcx1cANAzgbZjOwFdABydkjDUjAN&#13;&#10;A0wwBkgDyGYQhoUFLi+A/I7hBWz+dllY8h9E+6pbYXU+igHy3cVwL4DYIOAqzgum&#13;&#10;F1/YxZBnHojidLhh2JxqMiPjv60kL0OfXxeYX7SpjOHw888MZzJmYKhnwmbAnXdP&#13;&#10;GSTYeeB8EBskhg1gjcZc8yCG9pPrgKwmML/93BmwWDPDZuK8AAK1e+f/X3hmM8On&#13;&#10;v78hmp0TGRlGAW0AAPM7ZJd5gGB8AAAAAElFTkSuQmCC" xlink:actuate="onLoad"/>
<text x="867" font-size="11" y="442" clip-path="url(#clipPath21)" font-family="'Arial'" stroke="none" xml:space="preserve">W: couleurPièce</text>
<line clip-path="url(#clipPath21)" fill="none" x1="867" x2="944" y1="444" y2="444"/>
<image transform="matrix(1,0,0,1,851,448)" width="16" xlink:show="embed" xlink:type="simple" clip-path="url(#clipPath18)" preserveAspectRatio="none" height="16" font-family="'Arial'" x="0" y="0" font-size="11" xlink:href="data:image/png;base64,iVBORw0KGgoAAAANSUhEUgAAABAAAAAQCAYAAAAf8/9hAAABCElEQVR42mNkAIL/&#13;&#10;QPBx7wmG625pIC6D5q5ZDPzOFgyMQMAABSA1msnTGbRl+cD8q48/MVyfm8nAAlMA&#13;&#10;0mzx9xKYfYJZD85GBiDNaxqiUcRYGLAAbJrRAcx1cANAzgbZjOwFdABydkjDUjAN&#13;&#10;A0wwBkgDyGYQhoUFLi+A/I7hBWz+dllY8h9E+6pbYXU+igHy3cVwL4DYIOAqzgum&#13;&#10;F1/YxZBnHojidLhh2JxqMiPjv60kL0OfXxeYX7SpjOHw888MZzJmYKhnwmbAnXdP&#13;&#10;GSTYeeB8EBskhg1gjcZc8yCG9pPrgKwmML/93BmwWDPDZuK8AAK1e+f/X3hmM8On&#13;&#10;v78hmp0TGRlGAW0AAPM7ZJd5gGB8AAAAAElFTkSuQmCC" xlink:actuate="onLoad"/>
<text x="867" font-size="11" y="460" clip-path="url(#clipPath22)" font-family="'Arial'" stroke="none" xml:space="preserve">B: couleurPièce</text>
<line clip-path="url(#clipPath22)" fill="none" x1="867" x2="941" y1="462" y2="462"/>
<rect x="847" y="468" clip-path="url(#clipPath23)" fill="rgb(255,255,200)" width="119" height="23" stroke="none"/>
<rect x="847" y="467" clip-path="url(#clipPath23)" fill="none" width="118" height="23"/>
<image transform="matrix(1,0,0,1,851,471)" width="16" xlink:show="embed" xlink:type="simple" clip-path="url(#clipPath24)" preserveAspectRatio="none" height="16" font-family="'Arial'" x="0" y="0" font-size="11" xlink:href="data:image/png;base64,iVBORw0KGgoAAAANSUhEUgAAABAAAAAQCAYAAAAf8/9hAAABXUlEQVR42mNmIBL8&#13;&#10;B4INBqcbuJT5G4QcpRtWrVvdsLhrXiMLsQY4bo9i+Hz+NcOs4okMV77cZkifWAAW&#13;&#10;Z2IgEbgIWTEUyMUz3G08RZ4B6ICFVA173h0De2Hy3Kn4DSjdPuH/hFM7GTRFxBnc&#13;&#10;lQwYujzyGQx+ejOk9eYzMLIwMszMn8Dg2mTNwIhNs+/i4v9C7IwMoRqaDE++fGY4&#13;&#10;/uQJw7uf/xk2xfTA1TACAZhG11y4rff/04+PwZqRIpFh9Y0bDNL8sgz9XsWMeMNg&#13;&#10;0qndDPW2Vgw3379GCAK16IgJMTQe3k04EKV4+BgevH3HwM/OBrcdZMLHn7/Aco/R&#13;&#10;1GNEo7uSPsPdd+8ZxDm4GcTZuRkk2HnA7LtvP4Dl0AHWQHSek/Of/f9PBl8lZYbX&#13;&#10;P74znHj2jOEnIzvD3pQpGOqZsRlwf9OpRq+UiIamUwcYXv/6w2AsqcGwPKqVkWF4&#13;&#10;AgAw8XULl40C8AAAAABJRU5ErkJggg==" xlink:actuate="onLoad"/>
<text x="867" font-size="11" y="483" clip-path="url(#clipPath25)" font-family="'Arial'" stroke="none" xml:space="preserve">couleurPièce()</text>
<rect x="767" y="102" clip-path="url(#clipPath26)" fill="rgb(255,255,200)" width="151" height="53" stroke="none"/>
<rect x="767" y="102" clip-path="url(#clipPath26)" fill="none" width="150" height="52"/>
<text x="803" font-size="11" y="116" clip-path="url(#clipPath27)" font-family="'Arial'" stroke="none" xml:space="preserve">&lt;&lt;Java Class&gt;&gt;</text>
<image transform="matrix(1,0,0,1,818,121)" width="16" xlink:show="embed" xlink:type="simple" clip-path="url(#clipPath28)" preserveAspectRatio="none" font-weight="bold" height="16" font-family="'Arial'" x="0" y="0" xlink:href="data:image/png;base64,iVBORw0KGgoAAAANSUhEUgAAABAAAAAQCAYAAAAf8/9hAAACUElEQVR42s2S3UvT&#13;&#10;URjHP7/tNzfn67YgtU0FwUTLmZLRhYGWEfai9kY3elVdRdgfUGkQdGeEFxF2UdhN&#13;&#10;YNqLGhIShElJKtlFVs5B2szNTd3cm3O/fvtJg5l0000PnPOc8z3n+ZznPOfAP5qw&#13;&#10;WXg3MSJ1jD3G7fPIbQmDPh1TuolL5WfZV7Zf+CvgxvM70sDkENbcPDL0yXF92R9g&#13;&#10;1Gajfk8t145fFrYExIJ7P/RRX1GJ1VKKMXUbokokEo1gc37D7pqj680QzVWnEyDq&#13;&#10;eNrDXRwq2UV1cTVHio+RZ8zHYshVfJm5nHXCpOgl+iZG6G1/0Np5935bHOCvSGvN&#13;&#10;ytRSnl9Co/WMQn419ZIXk09x+pwUbi9CVItMzX+WfZSxBTvjPcMKQIx1Lp+bVC1I&#13;&#10;klYJnnbaePS2RxmP278w+Ok14UhYmQdDYRb9jngNFMCi18OCJ8RyMKSIDq+LsZkZ&#13;&#10;GShtFEoQ0IgiarWATtSwGookAkxpBlaDy8wvLSpintGMITUNKRpV5udrmklO0tD9&#13;&#10;YRCP14lOmxQHqGKdxZSNWj7F4f7OStCLJTOHq/Ut7M4vpqGyjqbKRmqLDqCRS5mi&#13;&#10;1VGYXZAIuFjawA+3G/9agFsD7XyVa3BwZxUd525ypeYCjpWfdA4/ZG09zEe7jaai&#13;&#10;w3/+g7Znt6Xu9/1kGQ3kGI2YjTvktHUEwkFm3XMEQmvMLDg5aq3m+okWYcufGIM8&#13;&#10;Ge2nINuMKMrJSRs7IpEo045ZTu6tSwiOX+G3xRbvnWpDpdLJr+LDteJXvD4pg5i+&#13;&#10;Ofj/sF95FuJLLC5pIAAAAABJRU5ErkJggg==" xlink:actuate="onLoad"/>
<text x="834" y="133" clip-path="url(#clipPath29)" font-family="'Arial'" stroke="none" font-weight="bold" xml:space="preserve">Pièce</text>
<text x="809" font-size="9" y="148" clip-path="url(#clipPath30)" font-family="'Arial'" stroke="none" xml:space="preserve">threeSpotGame</text>
<rect x="767" y="155" clip-path="url(#clipPath31)" fill="rgb(255,255,200)" width="151" height="5" stroke="none"/>
<rect x="767" y="154" clip-path="url(#clipPath31)" fill="none" width="150" height="5"/>
<rect x="767" y="160" clip-path="url(#clipPath32)" fill="rgb(255,255,200)" width="151" height="41" stroke="none"/>
<rect x="767" y="159" clip-path="url(#clipPath32)" fill="none" width="150" height="41"/>
<image transform="matrix(1,0,0,1,771,163)" width="16" xlink:show="embed" xlink:type="simple" clip-path="url(#clipPath33)" preserveAspectRatio="none" height="16" font-family="'Arial'" x="0" y="0" font-size="11" xlink:href="data:image/png;base64,iVBORw0KGgoAAAANSUhEUgAAABAAAAAQCAYAAAAf8/9hAAABXUlEQVR42mNmIBL8&#13;&#10;B4INBqcbuJT5G4QcpRtWrVvdsLhrXiMLsQY4bo9i+Hz+NcOs4okMV77cZkifWAAW&#13;&#10;Z2IgEbgIWTEUyMUz3G08RZ4B6ICFVA173h0De2Hy3Kn4DSjdPuH/hFM7GTRFxBnc&#13;&#10;lQwYujzyGQx+ejOk9eYzMLIwMszMn8Dg2mTNwIhNs+/i4v9C7IwMoRqaDE++fGY4&#13;&#10;/uQJw7uf/xk2xfTA1TACAZhG11y4rff/04+PwZqRIpFh9Y0bDNL8sgz9XsWMeMNg&#13;&#10;0qndDPW2Vgw3379GCAK16IgJMTQe3k04EKV4+BgevH3HwM/OBrcdZMLHn7/Aco/R&#13;&#10;1GNEo7uSPsPdd+8ZxDm4GcTZuRkk2HnA7LtvP4Dl0AHWQHSek/Of/f9PBl8lZYbX&#13;&#10;P74znHj2jOEnIzvD3pQpGOqZsRlwf9OpRq+UiIamUwcYXv/6w2AsqcGwPKqVkWF4&#13;&#10;AgAw8XULl40C8AAAAABJRU5ErkJggg==" xlink:actuate="onLoad"/>
<text x="787" font-size="11" y="175" clip-path="url(#clipPath34)" font-family="'Arial'" stroke="none" xml:space="preserve">Pièce(couleurPièce)</text>
<image transform="matrix(1,0,0,1,771,181)" width="16" xlink:show="embed" xlink:type="simple" clip-path="url(#clipPath35)" preserveAspectRatio="none" height="16" font-family="'Arial'" x="0" y="0" font-size="11" xlink:href="data:image/png;base64,iVBORw0KGgoAAAANSUhEUgAAABAAAAAQCAYAAAAf8/9hAAAA90lEQVR42mNgGAUU&#13;&#10;A0ZcEqXbJ/yfcGong6aIOIO7kgFDt2cBI9EG+C4u/i/EzsgQqqHJ8OTLZ4bjT54w&#13;&#10;vPv5n2FzbC+GeiZ0gcJtvf85Wf4y+KiqMnz/+4dBmJMTyFZhAImB5NDVs6ALTDq1&#13;&#10;m6He1orh5vvXKO7UERNiaDy8m4GgAVI8fAwP3r5j4Gdng4r8B5vw8ecvsNxjQl5w&#13;&#10;V9JnuPvuPYM4BzeDODs3gwQ7D5h99+0HsBxRgeg8J+c/+/+fDL5Kygyvf3xnOPHs&#13;&#10;GcNPRnaGvSlTMNQzYzPg/qZTjV4pEQ1Npw4wvP71h8FYUoNheVQr4zBNygAsEE99&#13;&#10;OgqVHAAAAABJRU5ErkJggg==" xlink:actuate="onLoad"/>
<text x="787" font-size="11" y="193" clip-path="url(#clipPath36)" font-family="'Arial'" stroke="none" xml:space="preserve">getCouleur():couleurPièce</text>
<rect x="282" y="305" clip-path="url(#clipPath37)" fill="rgb(255,255,200)" width="138" height="53" stroke="none"/>
<rect x="282" y="305" clip-path="url(#clipPath37)" fill="none" width="137" height="52"/>
<text x="311" font-size="11" y="319" clip-path="url(#clipPath38)" font-family="'Arial'" stroke="none" xml:space="preserve">&lt;&lt;Java Class&gt;&gt;</text>
<image transform="matrix(1,0,0,1,321,324)" width="16" xlink:show="embed" xlink:type="simple" clip-path="url(#clipPath39)" preserveAspectRatio="none" font-weight="bold" height="16" font-family="'Arial'" x="0" y="0" xlink:href="data:image/png;base64,iVBORw0KGgoAAAANSUhEUgAAABAAAAAQCAYAAAAf8/9hAAACUElEQVR42s2S3UvT&#13;&#10;URjHP7/tNzfn67YgtU0FwUTLmZLRhYGWEfai9kY3elVdRdgfUGkQdGeEFxF2UdhN&#13;&#10;YNqLGhIShElJKtlFVs5B2szNTd3cm3O/fvtJg5l0000PnPOc8z3n+ZznPOfAP5qw&#13;&#10;WXg3MSJ1jD3G7fPIbQmDPh1TuolL5WfZV7Zf+CvgxvM70sDkENbcPDL0yXF92R9g&#13;&#10;1Gajfk8t145fFrYExIJ7P/RRX1GJ1VKKMXUbokokEo1gc37D7pqj680QzVWnEyDq&#13;&#10;eNrDXRwq2UV1cTVHio+RZ8zHYshVfJm5nHXCpOgl+iZG6G1/0Np5935bHOCvSGvN&#13;&#10;ytRSnl9Co/WMQn419ZIXk09x+pwUbi9CVItMzX+WfZSxBTvjPcMKQIx1Lp+bVC1I&#13;&#10;klYJnnbaePS2RxmP278w+Ok14UhYmQdDYRb9jngNFMCi18OCJ8RyMKSIDq+LsZkZ&#13;&#10;GShtFEoQ0IgiarWATtSwGookAkxpBlaDy8wvLSpintGMITUNKRpV5udrmklO0tD9&#13;&#10;YRCP14lOmxQHqGKdxZSNWj7F4f7OStCLJTOHq/Ut7M4vpqGyjqbKRmqLDqCRS5mi&#13;&#10;1VGYXZAIuFjawA+3G/9agFsD7XyVa3BwZxUd525ypeYCjpWfdA4/ZG09zEe7jaai&#13;&#10;w3/+g7Znt6Xu9/1kGQ3kGI2YjTvktHUEwkFm3XMEQmvMLDg5aq3m+okWYcufGIM8&#13;&#10;Ge2nINuMKMrJSRs7IpEo045ZTu6tSwiOX+G3xRbvnWpDpdLJr+LDteJXvD4pg5i+&#13;&#10;Ofj/sF95FuJLLC5pIAAAAABJRU5ErkJggg==" xlink:actuate="onLoad"/>
<text x="337" y="336" clip-path="url(#clipPath40)" font-family="'Arial'" stroke="none" font-weight="bold" xml:space="preserve">Plateau</text>
<text x="317" font-size="9" y="351" clip-path="url(#clipPath41)" font-family="'Arial'" stroke="none" xml:space="preserve">threeSpotGame</text>
<rect x="282" y="358" clip-path="url(#clipPath42)" fill="rgb(255,255,200)" width="138" height="77" stroke="none"/>
<rect x="282" y="357" clip-path="url(#clipPath42)" fill="none" width="137" height="77"/>
<image transform="matrix(1,0,0,1,286,361)" width="16" xlink:show="embed" xlink:type="simple" clip-path="url(#clipPath43)" preserveAspectRatio="none" height="16" font-family="'Arial'" x="0" y="0" font-size="11" xlink:href="data:image/png;base64,iVBORw0KGgoAAAANSUhEUgAAABAAAAAQCAYAAAAf8/9hAAAAi0lEQVR42mNkIBL8&#13;&#10;BwLN5OkM2rJ8YP7Vx58Yrs/NZGBhIAGANK9piEYRI8kAZMAIBCQbAHJ2SMNSMA0D&#13;&#10;TOR4AeR3sgxAdz5eL9xw8v+PzQsYhuEzgNvUkEGmo57hSUUjw9fT5xk09m3EUI/X&#13;&#10;CyDNyDQ2gNcAkM0g8KJzIk41eKMR5OybzgEMo4DGAABScy+5X2Xs3wAAAABJRU5E&#13;&#10;rkJggg==" xlink:actuate="onLoad"/>
<text x="302" font-size="11" y="373" clip-path="url(#clipPath44)" font-family="'Arial'" stroke="none" xml:space="preserve">SCORE_FIN_JEU: int</text>
<image transform="matrix(1,0,0,1,286,379)" width="16" xlink:show="embed" xlink:type="simple" clip-path="url(#clipPath45)" preserveAspectRatio="none" height="16" font-family="'Arial'" x="0" y="0" font-size="11" xlink:href="data:image/png;base64,iVBORw0KGgoAAAANSUhEUgAAABAAAAAQCAYAAAAf8/9hAAAAi0lEQVR42mNkIBL8&#13;&#10;BwLN5OkM2rJ8YP7Vx58Yrs/NZGBhIAGANK9piEYRI8kAZMAIBCQbAHJ2SMNSMA0D&#13;&#10;TOR4AeR3sgxAdz5eL9xw8v+PzQsYhuEzgNvUkEGmo57hSUUjw9fT5xk09m3EUI/X&#13;&#10;CyDNyDQ2gNcAkM0g8KJzIk41eKMR5OybzgEMo4DGAABScy+5X2Xs3wAAAABJRU5E&#13;&#10;rkJggg==" xlink:actuate="onLoad"/>
<text x="302" font-size="11" y="391" clip-path="url(#clipPath46)" font-family="'Arial'" stroke="none" xml:space="preserve">SCORE_CONDITION: int</text>
<image transform="matrix(1,0,0,1,286,397)" width="16" xlink:show="embed" xlink:type="simple" clip-path="url(#clipPath47)" preserveAspectRatio="none" height="16" font-family="'Arial'" x="0" y="0" font-size="11" xlink:href="data:image/png;base64,iVBORw0KGgoAAAANSUhEUgAAABAAAAAQCAYAAAAf8/9hAAABCElEQVR42mNkAIL/&#13;&#10;QPBx7wmG625pIC6D5q5ZDPzOFgyMQMAABSA1msnTGbRl+cD8q48/MVyfm8nAAlMA&#13;&#10;0mzx9xKYfYJZD85GBiDNaxqiUcRYGLAAbJrRAcx1cANAzgbZjOwFdABydkjDUjAN&#13;&#10;A0wwBkgDyGYQhoUFLi+A/I7hBWz+dllY8h9E+6pbYXU+igHy3cVwL4DYIOAqzgum&#13;&#10;F1/YxZBnHojidLhh2JxqMiPjv60kL0OfXxeYX7SpjOHw888MZzJmYKhnwmbAnXdP&#13;&#10;GSTYeeB8EBskhg1gjcZc8yCG9pPrgKwmML/93BmwWDPDZuK8AAK1e+f/X3hmM8On&#13;&#10;v78hmp0TGRlGAW0AAPM7ZJd5gGB8AAAAAElFTkSuQmCC" xlink:actuate="onLoad"/>
<text x="302" font-size="11" y="409" clip-path="url(#clipPath48)" font-family="'Arial'" stroke="none" xml:space="preserve">SPOT: int</text>
<line clip-path="url(#clipPath48)" fill="none" x1="302" x2="344" y1="411" y2="411"/>
<image transform="matrix(1,0,0,1,286,415)" width="16" xlink:show="embed" xlink:type="simple" clip-path="url(#clipPath49)" preserveAspectRatio="none" height="16" font-family="'Arial'" x="0" y="0" font-size="11" xlink:href="data:image/png;base64,iVBORw0KGgoAAAANSUhEUgAAABAAAAAQCAYAAAAf8/9hAAAATklEQVR42mNgGAUD&#13;&#10;DxhxSdxw8v+PLqaxbyOGeiZ8pnObGjKo790ApnEBvAbIdNSj0CQb8KSiEUy/6JyI&#13;&#10;Uw0LPgO+nj7PcNM5YDSl0BoAAEXuEKLqixmsAAAAAElFTkSuQmCC" xlink:actuate="onLoad"/>
<text x="302" font-size="11" y="427" clip-path="url(#clipPath50)" font-family="'Arial'" stroke="none" xml:space="preserve">points: int[]</text>
<line clip-path="url(#clipPath51)" fill="none" x1="854" x2="854" y1="201" y2="278"/>
<line clip-path="url(#clipPath51)" fill="none" x1="854" x2="891" y1="278" y2="278"/>
<line clip-path="url(#clipPath51)" fill="none" x1="891" x2="891" y1="278" y2="356"/>
<circle fill="none" r="5" clip-path="url(#clipPath52)" cx="854" cy="206"/>
<line clip-path="url(#clipPath52)" fill="none" x1="859" x2="849" y1="206" y2="206"/>
<line clip-path="url(#clipPath53)" fill="none" x1="420" x2="723" y1="354" y2="354"/>
<line clip-path="url(#clipPath53)" fill="none" x1="723" x2="723" y1="354" y2="191"/>
<line clip-path="url(#clipPath53)" fill="none" x1="723" x2="767" y1="191" y2="191"/>
<text x="683" font-size="11" y="183" clip-path="url(#clipPath54)" font-family="'Arial'" stroke="none" xml:space="preserve">+pièceBlanche</text>
<line clip-path="url(#clipPath54)" fill="none" x1="683" x2="753" y1="185" y2="185"/>
<text x="735" font-size="11" y="206" clip-path="url(#clipPath55)" font-family="'Arial'" stroke="none" xml:space="preserve">0..1</text>
<line clip-path="url(#clipPath56)" fill="none" x1="759" x2="767" y1="195" y2="191"/>
<line clip-path="url(#clipPath56)" fill="none" x1="767" x2="759" y1="191" y2="187"/>
<line clip-path="url(#clipPath57)" fill="none" x1="356" x2="356" y1="305" y2="61"/>
<line clip-path="url(#clipPath57)" fill="none" x1="356" x2="777" y1="61" y2="61"/>
<line clip-path="url(#clipPath57)" fill="none" x1="777" x2="777" y1="61" y2="102"/>
<text x="762" font-size="11" y="86" clip-path="url(#clipPath58)" font-family="'Arial'" stroke="none" xml:space="preserve">-p</text>
<text x="782" font-size="11" y="87" clip-path="url(#clipPath59)" font-family="'Arial'" stroke="none" xml:space="preserve">0..*</text>
<line clip-path="url(#clipPath60)" fill="none" x1="773" x2="777" y1="94" y2="102"/>
<line clip-path="url(#clipPath60)" fill="none" x1="777" x2="781" y1="102" y2="94"/>
<line clip-path="url(#clipPath61)" fill="none" x1="156" x2="219" y1="216" y2="216"/>
<line clip-path="url(#clipPath61)" fill="none" x1="219" x2="219" y1="216" y2="316"/>
<line clip-path="url(#clipPath61)" fill="none" x1="219" x2="282" y1="316" y2="316"/>
<text x="230" font-size="11" y="308" clip-path="url(#clipPath62)" font-family="'Arial'" stroke="none" xml:space="preserve">-plateau</text>
<line clip-path="url(#clipPath62)" fill="none" x1="230" x2="268" y1="310" y2="310"/>
<text x="250" font-size="11" y="331" clip-path="url(#clipPath63)" font-family="'Arial'" stroke="none" xml:space="preserve">0..1</text>
<line clip-path="url(#clipPath64)" fill="none" x1="274" x2="282" y1="320" y2="316"/>
<line clip-path="url(#clipPath64)" fill="none" x1="282" x2="274" y1="316" y2="312"/>
<line clip-path="url(#clipPath65)" fill="none" x1="840" x2="840" y1="201" y2="292"/>
<line clip-path="url(#clipPath65)" fill="none" x1="840" x2="877" y1="292" y2="292"/>
<line clip-path="url(#clipPath65)" fill="none" x1="877" x2="877" y1="292" y2="356"/>
<text x="832" font-size="11" y="340" clip-path="url(#clipPath66)" font-family="'Arial'" stroke="none" xml:space="preserve">-couleur</text>
<text x="882" font-size="11" y="341" clip-path="url(#clipPath67)" font-family="'Arial'" stroke="none" xml:space="preserve">0..1</text>
<line clip-path="url(#clipPath68)" fill="none" x1="873" x2="877" y1="348" y2="356"/>
<line clip-path="url(#clipPath68)" fill="none" x1="877" x2="881" y1="356" y2="348"/>
<line clip-path="url(#clipPath69)" fill="none" x1="407" x2="407" y1="305" y2="116"/>
<line clip-path="url(#clipPath69)" fill="none" x1="407" x2="767" y1="116" y2="116"/>
<text x="695" font-size="11" y="108" clip-path="url(#clipPath70)" font-family="'Arial'" stroke="none" xml:space="preserve">+pièceBleue</text>
<line clip-path="url(#clipPath70)" fill="none" x1="695" x2="753" y1="110" y2="110"/>
<text x="735" font-size="11" y="131" clip-path="url(#clipPath71)" font-family="'Arial'" stroke="none" xml:space="preserve">0..1</text>
<line clip-path="url(#clipPath72)" fill="none" x1="759" x2="767" y1="120" y2="116"/>
<line clip-path="url(#clipPath72)" fill="none" x1="767" x2="759" y1="116" y2="112"/>
<line clip-path="url(#clipPath73)" fill="none" x1="420" x2="543" y1="330" y2="330"/>
<line clip-path="url(#clipPath73)" fill="none" x1="543" x2="543" y1="330" y2="158"/>
<line clip-path="url(#clipPath73)" fill="none" x1="543" x2="767" y1="158" y2="158"/>
<text x="691" font-size="11" y="150" clip-path="url(#clipPath74)" font-family="'Arial'" stroke="none" xml:space="preserve">+pièceRouge</text>
<line clip-path="url(#clipPath74)" fill="none" x1="691" x2="753" y1="152" y2="152"/>
<text x="735" font-size="11" y="173" clip-path="url(#clipPath75)" font-family="'Arial'" stroke="none" xml:space="preserve">0..1</text>
<line clip-path="url(#clipPath76)" fill="none" x1="759" x2="767" y1="162" y2="158"/>
<line clip-path="url(#clipPath76)" fill="none" x1="767" x2="759" y1="158" y2="154"/>
</g>
</g>
</svg>
